Homework 6 EncryptedX

Total Score: 100%

Compiles       20 pts

Comments    10 pts

Uses nested for loop properly     15 pts

Checks for between 0-100   5 pts

Program works  (shows some sort of grid-like output)            50 pts

Prints x instead of *	-5 pts

Asks for 1-100 instead of 0-100	-5 pts
